Division,Equipment,WeightClassKg,Name,Best3SquatKg,Squat4Kg,Best3BenchKg,Bench4Kg,Best3DeadliftKg,Deadlift4Kg,TotalKg,Event,Sex,Place
Amateur Teen 14-15,Wraps,60,Marcella Cash,99.79,,47.63,,129.27,136.08,276.69,SBD,F,1
Amateur Teen 18-19,Wraps,75,Kateri Peters,106.59,115.67,54.43,,147.42,,308.44,SBD,F,1
Amateur Juniors 20-23,Wraps,67.5,Lauren Parrinello,111.13,119.07,70.31,,148.55,,329.99,SBD,F,1
Amateur Juniors 20-23,Wraps,67.5,Nubia Oliveira,102.06,,52.16,,102.06,,256.28,SBD,F,2
Amateur Open,Wraps,56,Melissa Barber,131.54,,72.57,,190.51,,394.63,SBD,F,1
Amateur Open,Wraps,60,Amanda Neidlinger,133.81,,61.23,,149.69,,344.73,SBD,F,1
Amateur Open,Wraps,60,Katelyn Thompson,104.33,,61.23,,127.01,,292.57,SBD,F,2
Amateur Open,Wraps,67.5,Lauren Parrinello,111.13,119.07,70.31,,148.55,,329.99,SBD,F,1
Amateur Open,Wraps,67.5,Jenny Jean,108.86,,61.23,,113.4,,283.5,SBD,F,2
Amateur Open,Wraps,82.5,Ogechi Akalegbere,183.7,190.51,97.52,,176.9,,458.13,SBD,F,1
Amateur Open,Wraps,82.5,Sarah Gilbert,131.54,,61.23,,138.35,,331.12,SBD,F,2
Amateur Open,Wraps,90+,Jennifer Farr,138.35,,74.84,,158.76,,371.95,SBD,F,1
Amateur Open,Wraps,90+,Bernadette Henman,56.7,,45.36,,92.99,,195.04,SBD,F,2
Amateur Submasters 33-39,Wraps,52,Karla Portillo,104.33,,65.77,,113.4,,283.5,SBD,F,1
Amateur Masters 40-44,Wraps,90+,Amy Dingus,106.59,,63.5,,131.54,,301.64,SBD,F,1
Amateur Police,Wraps,90+,Christina Gosselin,151.95,158.76,74.84,,158.76,,385.55,SBD,F,1
Pro Juniors 20-23,Wraps,75,Alexandria Helsel,108.86,,63.5,,120.2,,292.57,SBD,F,1
Pro Open,Wraps,75,Jessica Zang,168.96,174.63,102.06,,204.12,,475.14,SBD,F,1
Pro Submasters 33-39,Wraps,90+,Jen Sumrall,68.04,86.18,58.97,,127.01,136.08,254.01,SBD,F,1
Pro Police,Wraps,82.5,Marina Wemple,102.06,,83.91,,124.74,,310.71,SBD,F,1
Pro Police,Wraps,90+,Jen Sumrall,68.04,86.18,58.97,,127.01,136.08,254.01,SBD,F,1
Pro Open,Multi-ply,60,Beth Poplin,210.92,,158.76,,165.56,,535.24,SBD,F,1
Pro Masters 45-49,Multi-ply,60,Beth Poplin,210.92,,158.76,,165.56,,535.24,SBD,F,1
Pro Masters 50-54,Multi-ply,56,Elizabeth Grundy,181.44,,111.13,,161.03,,453.59,SBD,F,1
Amateur Submasters 33-39,Raw,75,Christina Schwarz,,,68.04,,,,68.04,B,F,1
Amateur Teen 16-17,Wraps,75,Nicholas Chludzinski,206.38,215.46,124.74,,215.46,,546.58,SBD,M,1
Amateur Teen 16-17,Wraps,125,Samuel Gyeni,247.21,261.95,172.37,178.04,240.4,,659.98,SBD,M,1
Amateur Teen 16-17,Wraps,140+,Eric Schwarz,165.56,185.97,120.2,,201.85,210.92,487.61,SBD,M,1
Amateur Teen 18-19,Wraps,90,Jordan Richardson,231.33,,124.74,,219.99,,576.06,SBD,M,1
Amateur Teen 18-19,Wraps,110,Devon Sebastian,233.6,,124.74,,272.16,,630.49,SBD,M,1
Amateur Teen 18-19,Wraps,140,Douglas Brackins,197.31,,136.08,,238.14,,571.53,SBD,M,1
Amateur Juniors 20-23,Wraps,75,Ryan Beshada,188.24,,104.33,,201.85,,494.42,SBD,M,1
Amateur Juniors 20-23,Wraps,82.5,Micah Metz,233.6,,142.88,,226.8,,603.28,SBD,M,1
Amateur Juniors 20-23,Wraps,90,Nicholas Clancy,226.8,,165.56,,247.21,,639.57,SBD,M,1
Amateur Juniors 20-23,Wraps,100,Zachary Hopple,224.53,,165.56,,229.06,,619.15,SBD,M,1
Amateur Juniors 20-23,Wraps,125,Dylan Ward,244.94,,174.63,,226.8,,646.37,SBD,M,1
Amateur Juniors 20-23,Wraps,140,Alexander Chung,258.55,,172.37,,242.67,,673.58,SBD,M,1
Amateur Juniors 20-23,Wraps,140+,Adam Burke,240.4,247.21,176.9,,272.16,,689.46,SBD,M,1
Amateur Open,Wraps,75,Nicholas Chludzinski,206.38,215.46,124.74,,215.46,,546.58,SBD,M,1
Amateur Open,Wraps,90,Scott Pasternacki,195.04,,154.22,,204.12,,553.38,SBD,M,1
Amateur Open,Wraps,100,Greg Lockwood,229.06,,151.95,,263.08,,644.1,SBD,M,1
Amateur Open,Wraps,100,Chris Pick,238.14,,158.76,,240.4,,637.3,SBD,M,2
Amateur Open,Wraps,110,Nicholas Albaugh,165.56,,108.86,,206.38,,480.81,SBD,M,1
Amateur Open,Wraps,140,Benjamin Smith #3,260.82,,138.35,,260.82,,659.98,SBD,M,1
Amateur Open,Wraps,140+,Adam Burke,240.4,247.21,176.9,,272.16,,689.46,SBD,M,1
Amateur Submasters 33-39,Wraps,100,Chris Weightman,235.87,,165.56,,297.1,,698.53,SBD,M,1
Amateur Masters 50-54,Wraps,140+,Albert Owens Jr,249.48,,174.63,,260.82,,684.92,SBD,M,1
Amateur Open,Multi-ply,90,Michael Ferguson #1,297.1,,204.12,,249.48,,750.7,SBD,M,1
Amateur Open,Multi-ply,125,Eric Freeman,299.37,,265.35,,295.97,306.17,860.69,SBD,M,1
Amateur Open,Multi-ply,125,Matthew Harmon,326.59,,199.58,,265.35,,791.52,SBD,M,2
Amateur Open,Multi-ply,125,John Levan Jr,272.16,,195.04,,217.72,,684.92,SBD,M,3
Amateur Masters 40-44,Multi-ply,125,John Levan Jr,272.16,,195.04,,217.72,,684.92,SBD,M,1
Amateur Masters 45-49,Multi-ply,125,Eric Freeman,299.37,,265.35,,295.97,306.17,860.69,SBD,M,1
Pro Juniors 20-23,Wraps,82.5,Jordan Fender,231.33,,154.22,,235.87,,621.42,SBD,M,1
Pro Open,Wraps,82.5,Jason Leach,204.12,,129.27,,219.99,,553.38,SBD,M,1
Pro Open,Wraps,90,Stephen Teeters,306.17,,188.24,,322.05,,816.47,SBD,M,1
Pro Open,Wraps,90,Joe Steel,263.08,,176.9,,299.37,,739.36,SBD,M,2
Pro Open,Wraps,90,Justin McCalips,254.01,,195.04,,258.55,,707.6,SBD,M,3
Pro Open,Wraps,125,Nick Sauble,260.82,,161.03,,283.5,,705.34,SBD,M,1
Pro Police,Wraps,82.5,Jason Leach,204.12,,129.27,,219.99,,553.38,SBD,M,1
Pro Juniors 20-23,Wraps,110,Gunther Gaiser,249.48,,156.49,,272.16,,678.12,SBD,M,1
Pro Juniors 20-23,Wraps,140,Chris Husletan,294.84,,192.78,,260.82,,748.43,SBD,M,1
Pro Masters 45-49,Wraps,100,Bobby Lagana,229.06,,138.35,,238.14,,605.55,SBD,M,1
Pro Masters 65-69,Wraps,100,James Cash,127.01,,81.65,,183.7,192.78,392.36,SBD,M,1
Pro Open,Multi-ply,110,Jonathan Ross,385.55,,303.91,,301.64,,991.1,SBD,M,1
Pro Open,Multi-ply,110,Mark Amoroso,374.21,,260.82,,272.16,,907.18,SBD,M,2
Pro Open,Multi-ply,110,Billy Warren,421.84,,256.28,,61.23,,739.36,SBD,M,3
Pro Submasters 33-39,Multi-ply,125,Rich Putnam,390.09,,340.19,,204.12,,934.4,SBD,M,1
Pro Masters 40-44,Multi-ply,100,Ken Foreman,294.84,,215.46,,238.14,,748.43,SBD,M,1
Pro Masters 45-49,Multi-ply,90,Dean Moore,317.51,,204.12,,226.8,,748.43,SBD,M,1
Pro Masters 50-54,Multi-ply,110,Billy Warren,421.84,,256.28,,61.23,,739.36,SBD,M,1
Pro Masters 60-64,Multi-ply,125,John Mattei,249.48,,167.83,,226.8,,644.1,SBD,M,1
Amateur Teen 18-19,Raw,100,Cody Couch,,,140.61,,,,140.61,B,M,1
Amateur Teen 18-19,Raw,140,Douglas Brackins,,,136.08,,,,136.08,B,M,1
Amateur Open,Raw,75,Bob Legg,,,90.72,,,,90.72,B,M,1
Amateur Open,Raw,82.5,Jacob Williams,,,188.24,,,,188.24,B,M,1
Amateur Open,Raw,82.5,Cody Perez,,,154.22,,,,154.22,B,M,2
Amateur Open,Raw,110,Joshua Phipps,,,167.83,,,,167.83,B,M,1
Amateur Submasters 33-39,Raw,100,Chris Baynham,,,213.19,,,,213.19,B,M,1
Amateur Submasters 33-39,Raw,110,Michael Tomko,,,167.83,,,,167.83,B,M,1
Amateur Masters 40-44,Raw,82.5,Jacob Williams,,,188.24,,,,188.24,B,M,1
Amateur Masters 40-44,Raw,110,Robert Hunt,,,192.78,,,,192.78,B,M,1
Amateur Masters 50-54,Raw,75,Jeffrey Willis,,,136.08,141.75,,,136.08,B,M,1
Amateur Masters 50-54,Raw,90,Charles Green,,,140.61,,,,140.61,B,M,1
Amateur Masters 50-54,Raw,110,Knight Smith,,,185.97,,,,185.97,B,M,1
Amateur Masters 60-64,Raw,75,Bob Legg,,,90.72,,,,90.72,B,M,1
Amateur Masters 70-74,Raw,100,Chuck Mulligan,,,133.81,,,,133.81,B,M,1
Amateur Police,Raw,90,Charles Green,,,140.61,,,,140.61,B,M,1
Amateur Police,Raw,110,Joshua Phipps,,,167.83,,,,167.83,B,M,1
Amateur Police,Raw,75,Jeffrey Willis,,,136.08,141.75,,,136.08,B,M,1
Pro Teen 18-19,Raw,125,Chris Smith #6,,,210.92,215.46,,,210.92,B,M,1
Pro Open,Raw,90,Tim Lewis #1,,,197.31,,,,197.31,B,M,1
Pro Open,Raw,140,Justin Kearns,,,254.01,,,,254.01,B,M,1
Pro Masters 40-44,Raw,140,Justin Kearns,,,254.01,,,,254.01,B,M,1
Pro Police,Raw,100,Jeremy Elston,,,174.63,181.44,,,174.63,B,M,1
Pro Police,Raw,110,Knight Smith,,,185.97,,,,185.97,B,M,1
Pro Masters 50-54,Multi-ply,90,Brian Yoder Sr,,,233.6,,,,233.6,B,M,1
Amateur Teen 18-19,Raw,140,Douglas Brackins,,,,,238.14,,238.14,D,M,1
Amateur Open,Raw,90,Joshua Flemembaum,,,,,226.8,,226.8,D,M,1
Amateur Submasters 33-39,Raw,90,Joshua Flemembaum,,,,,226.8,,226.8,D,M,1
Amateur Masters 55-59,Raw,90,Roy Apseloff,,,,,243.81,,243.81,D,M,1
Amateur Masters 60-64,Raw,140,Bill Schnepf,,,,,260.82,,260.82,D,M,1
Amateur Open,Raw,100,Jacob Walker,,,151.95,,251.74,,403.7,BD,M,1
Pro Open,Raw,125,Joseph Judd,,,174.63,,288.03,,462.66,BD,M,1
Amateur Open,Raw,140,Jacob Manley #1,299.37,,204.12,,,,503.49,SB,M,1
Pro Open,Multi-ply,67.5,Marc Fahringer,238.14,,,,,,238.14,S,M,1
