Name,Sex,BirthDate,Age,Division,BodyweightKg,WeightClassKg,Squat1Kg,Squat2Kg,Squat3Kg,Squat4Kg,Best3SquatKg,Bench1Kg,Bench2Kg,Bench3Kg,Bench4Kg,Best3BenchKg,Deadlift1Kg,Deadlift2Kg,Deadlift3Kg,Deadlift4Kg,Best3DeadliftKg,TotalKg,Event,Place,Tested,Equipment
Seaver Mattison,M,1988-01-09,20,M_JEM_AAPF,66.8,67.5,195,215,-230,,215,145,155,-160,,155,182.5,200,-220,,200,570,SBD,1,Yes,Multi-ply
Kalin Chester,M,1984-07-22,23,M_JEM_AAPF,75,75,260,272.5,282.5,,282.5,237.5,-245,250,-260,250,207.5,215,-227.5,,215,747.5,SBD,1,Yes,Multi-ply
Dan O'Brien,M,1986-05-07,21,M_JEM_AAPF,80.9,82.5,225,-232.5,232.5,,232.5,150,157.5,162.5,,162.5,210,215,-217.5,,215,610,SBD,1,Yes,Multi-ply
Brian Bott,M,1984-10-08,23,M_JEM_AAPF,90,90,255,-275,275,,275,167.5,-180,-180,,167.5,212.5,-232.5,232.5,,232.5,675,SBD,1,Yes,Multi-ply
Ward Benson,M,1984-09-06,23,M_JEM_AAPF,87,90,190,210,-227.5,,210,137.5,147.5,155,,155,190,210,-227.5,,210,575,SBD,2,Yes,Multi-ply
Charlie Morse,M,1966-07-05,41,M_MEM_1_AAPF,67.5,67.5,227.5,-252.5,-252.5,,227.5,137.5,147.5,-152.5,,147.5,195,-205,205,,205,580,SBD,1,Yes,Multi-ply
Mark VanAlstyne,M,1967-05-12,40,M_MEM_1_AAPF,80.7,82.5,300,-320,-320,,300,-205,-205,205,-215,205,225,-237.5,237.5,,237.5,742.5,SBD,1,Yes,Multi-ply
Mark Trulock,M,1967-05-18,40,M_MEM_1_AAPF,80.6,82.5,235,247.5,-265,,247.5,125,-135,-135,,125,230,-245,245,,245,617.5,SBD,2,Yes,Multi-ply
Dyke Naughton,M,1964-01-10,44,M_MEM_1_AAPF,81,82.5,150,,,,150,200,-215,215,-217.5,215,170,192.5,205,,205,570,SBD,3,Yes,Multi-ply
Jeff Rebera,M,1968-02-12,40,M_MEM_1_AAPF,93.6,100,-320,320,-337.5,,320,230,-247.5,-247.5,,230,250,-265,,,250,800,SBD,1,Yes,Multi-ply
Michael Larsen,M,1959-07-26,48,M_MEM_2_AAPF,76.8,82.5,185,197.5,-205,,197.5,82.5,87.5,-90,,87.5,152.5,165,-180,,165,450,SBD,1,Yes,Multi-ply
Bruce McCord,M,1961-05-07,46,M_MEM_2_AAPF,100,100,250,267.5,-275,,267.5,175,-185,-187.5,,175,-235,235,250,,250,692.5,SBD,1,Yes,Multi-ply
Bruce Garnett,M,1963-03-13,45,M_MEM_2_AAPF,94.9,100,205,230,245,,245,-175,-175,175,,175,185,207.5,227.5,,227.5,647.5,SBD,2,Yes,Multi-ply
James Dibble,M,1961-02-10,47,M_MEM_2_AAPF,109.7,110,280,317.5,332.5,,332.5,227.5,242.5,-257.5,,242.5,242.5,255,265,,265,840,SBD,1,Yes,Multi-ply
Paul Burgess,M,1958-07-28,49,M_MEM_2_AAPF,123.4,125,177.5,-202.5,220,,220,110,120,-130,,120,-165,165,-190,,165,505,SBD,1,Yes,Multi-ply
Tim Lane,M,1959-03-02,49,M_MEM_2_AAPF,133.9,140,325,-350,362.5,,362.5,185,207.5,-212.5,,207.5,277.5,-292.5,300,,300,870,SBD,1,Yes,Multi-ply
Gregg Sagor,M,1955-02-15,53,M_MEM_3_AAPF,71.9,75,170,185,200,,200,85,95,-105,,95,150,165,175,,175,470,SBD,1,Yes,Multi-ply
Francis Rudy Ruettiger,M,1954-06-11,53,M_MEM_3_AAPF,82.3,82.5,260,-277.5,-277.5,,260,155,165,-170,,165,227.5,237.5,-242.5,,237.5,662.5,SBD,1,Yes,Multi-ply
Dick Zenzen,M,1952-05-21,55,M_MEM_4_AAPF,99.2,100,282.5,305,317.5,,317.5,155,165,172.5,-182.5,172.5,210,235,-250,,235,725,SBD,1,Yes,Multi-ply
Daniel Reph,M,1942-03-14,66,M_MEM_6_AAPF,126.7,140,170,187.5,-190,,187.5,75,85,-92.5,,85,200,210,215,,215,487.5,SBD,1,Yes,Multi-ply
Fred Glass,M,1936-11-23,71,M_MEM_7_AAPF,67.4,67.5,152.5,165,-182.5,,165,40,55,-60,,55,167.5,-185,-185,,167.5,387.5,SBD,1,Yes,Multi-ply
Richard Flores #1,M,1938-01-26,70,M_MEM_7_AAPF,73.9,75,205,227.5,-242.5,,227.5,87.5,92.5,97.5,,97.5,205,220,227.5,,227.5,552.5,SBD,1,Yes,Multi-ply
James Ellis #1,M,1938-03-16,70,M_MEM_7_AAPF,89.2,90,-192.5,192.5,-202.5,,192.5,95,-102.5,105,,105,187.5,-205,,,187.5,485,SBD,1,Yes,Multi-ply
John DiGirolamo,M,1977-03-17,31,M_OEM_AAPF,74.6,75,265,285,-300,,285,180,-195,-195,,180,-230,230,-252.5,,230,695,SBD,1,Yes,Multi-ply
David Kirschen,M,1977-08-02,30,M_OEM_AAPF,82.5,82.5,322.5,342.5,350,,350,227.5,242.5,247.5,,247.5,-250,250,265,,265,862.5,SBD,1,Yes,Multi-ply
Devin Cagnolatti,M,1973-05-04,34,M_OEM_AAPF,81.9,82.5,302.5,310,325,,325,-232.5,242.5,255,-267.5,255,247.5,257.5,267.5,,267.5,847.5,SBD,2,Yes,Multi-ply
Vincent Lysobey,M,1971-05-11,36,M_OEM_AAPF,81.9,82.5,262.5,290,-307.5,,290,175,190,197.5,,197.5,217.5,242.5,-255,,242.5,730,SBD,3,Yes,Multi-ply
Eric Stone,M,1983-02-09,25,M_OEM_AAPF,80.2,82.5,295,320,-332.5,,320,157.5,-182.5,-182.5,,157.5,212.5,-245,-245,,212.5,690,SBD,4,Yes,Multi-ply
Chris DelPreore,M,1973-12-19,34,M_OEM_AAPF,99.5,100,332.5,357.5,-372.5,,357.5,230,-245,245,,245,247.5,275,-285,,275,877.5,SBD,1,Yes,Multi-ply
Anthony Infante,M,1983-08-08,24,M_OEM_AAPF,95.3,100,200,222.5,227.5,,227.5,165,-182.5,-182.5,,165,212.5,225,-237.5,,225,617.5,SBD,2,Yes,Multi-ply
Jo Jordan,M,1973-08-31,34,M_OEM_AAPF,110,110,410,-430,-430,,410,275,-290,-290,,275,297.5,320,-332.5,,320,1005,SBD,1,Yes,Multi-ply
James Dibble,M,1961-02-10,47,M_OEM_AAPF,109.7,110,280,317.5,332.5,,332.5,227.5,242.5,-257.5,,242.5,242.5,255,265,,265,840,SBD,2,Yes,Multi-ply
Todd Potts,M,1978-01-11,30,M_PFEM_AAPF,75,75,155,167.5,177.5,,177.5,122.5,132.5,140,-142.5,140,120,132.5,145,,145,462.5,SBD,1,Yes,Multi-ply
Dick Zenzen,M,1952-05-21,55,M_PFEM_AAPF,99.2,100,282.5,305,-317.5,,305,155,165,172.5,,172.5,210,235,-250,,235,712.5,SBD,1,Yes,Multi-ply
Vincent Lysobey,M,1971-05-11,36,M_SEM_AAPF,81.9,82.5,262.5,290,-307.5,,290,175,190,197.5,,197.5,217.5,242.5,-255,,242.5,730,SBD,1,Yes,Multi-ply
Ervin Domanski,M,1971-10-03,36,M_SEM_AAPF,82.5,82.5,-297.5,297.5,-327.5,,297.5,167.5,-182.5,-182.5,,167.5,250,260,-275,,260,725,SBD,2,Yes,Multi-ply
Mark Hibbing,M,1968-11-05,39,M_SEM_AAPF,82.1,82.5,227.5,252.5,-275,,252.5,125,150,-152.5,,150,195,215,230,,230,632.5,SBD,3,Yes,Multi-ply
Robert Clark,M,1970-01-31,38,M_SEM_AAPF,88.4,90,292.5,320,-332.5,,320,200,210,-222.5,,210,267.5,287.5,,,287.5,817.5,SBD,1,Yes,Multi-ply
Mike Szudarek,M,1972-05-17,35,M_OEM_AAPF,99.3,100,-350,-372.5,-385,,,,,,,,,,,,,,SBD,DQ,Yes,Multi-ply
Mitchell McMahon,M,1988-06-15,19,M_TEM_3_AAPF,108.8,110,-302.5,-302.5,-302.5,,,,,,,,,,,,,,SBD,DQ,Yes,Multi-ply
Derek Jones,M,1988-04-08,20,M_JEM_AAPF,93,100,275,-290,-290,,275,-185,-185,-185,,,,,,,,,SBD,DQ,Yes,Multi-ply
Jordan Dunn,M,1991-05-05,16,M_TEM_2_AAPF,73.7,75,-310,-310,-322.5,,,,,,,,,,,,,,SBD,DQ,Yes,Multi-ply
Anthony McCloskey,M,1991-02-04,17,M_TEM_2_AAPF,98.3,100,-367.5,-367.5,-367.5,,,,,,,,,,,,,,SBD,DQ,Yes,Multi-ply
John McDermott,M,1991-01-30,17,M_TEM_2_AAPF,97.4,100,235,265,287.5,,287.5,185,195,210,,210,-220,-220,-220,,,,SBD,DQ,Yes,Multi-ply
Jeffrey Haiduke,M,1983-04-25,24,M_OEM_AAPF,70.6,75,,,,,,,,,,,,,,,,,SBD,DQ,Yes,Multi-ply
Kevin Platt,M,1987-05-31,20,M_JEM_AAPF,89,90,,,,,,185,-195,195,,195,,,,,,195,B,1,Yes,Multi-ply
Michael Bingham,M,1965-08-22,42,M_MEM_1_AAPF,80.9,82.5,,,,,,187.5,-197.5,200,207.5,200,,,,,,200,B,1,Yes,Multi-ply
Eric Hubbs,M,1963-12-31,44,M_MEM_1_AAPF,112.2,125,,,,,,-250,250,-275,,250,,,,,,250,B,1,Yes,Multi-ply
John Robinson,M,1967-10-19,40,M_MEM_1_AAPF,156,140+,,,,,,300,-320,-320,,300,,,,,,300,B,1,Yes,Multi-ply
Sam Luciano,M,,46,M_MEM_2_AAPF,98.3,100,,,,,,227.5,240,250,-260,250,,,,,,250,B,1,Yes,Multi-ply
Dave Murphy,M,1954-12-14,53,M_MEM_3_AAPF,108.8,110,,,,,,140,-250,-250,,140,,,,,,140,B,1,Yes,Multi-ply
Mark Hammond,M,1952-04-26,55,M_MEM_4_AAPF,96.2,100,,,,,,190,195,-200,,195,,,,,,195,B,1,Yes,Multi-ply
Edward Fitzpatrick,M,1948-05-29,59,M_MEM_4_AAPF,109.7,110,,,,,,192.5,-212.5,215,-220,215,,,,,,215,B,1,Yes,Multi-ply
Ken Tawzer,M,1951-11-01,56,M_MEM_4_AAPF,115.9,125,,,,,,-165,-170,170,,170,,,,,,170,B,1,Yes,Multi-ply
Edward Brown,M,1939-07-26,68,M_MEM_6_AAPF,95.5,100,,,,,,132.5,145,-155,,145,,,,,,145,B,1,Yes,Multi-ply
Pete Bush #2,M,1928-02-12,80,M_MEM_9_AAPF,67.5,67.5,,,,,,52.5,-57.5,-60,,52.5,,,,,,52.5,B,1,Yes,Multi-ply
James Matta,M,1976-02-04,32,M_OEM_AAPF,88.6,90,,,,,,227.5,240,-250,,240,,,,,,240,B,1,Yes,Multi-ply
Dave Murphy,M,1954-12-14,53,M_OEM_AAPF,108.8,110,,,,,,140,-250,-250,,140,,,,,,140,B,1,Yes,Multi-ply
Eric Hubbs,M,1963-12-31,44,M_OEM_AAPF,112.2,125,,,,,,-250,250,-275,,250,,,,,,250,B,1,Yes,Multi-ply
Michael Bingham,M,1965-08-22,42,M_PFEM_AAPF,80.9,82.5,,,,,,187.5,-197.5,200,207.5,200,,,,,,200,B,1,Yes,Multi-ply
Ken Tawzer,M,1951-11-01,56,M_PFEM_AAPF,115.9,125,,,,,,-165,-170,170,172.5,170,,,,,,170,B,1,Yes,Multi-ply
Dale Szymanski,M,1969-12-16,38,M_SEM_AAPF,123.2,125,,,,,,240,277.5,282.5,,282.5,,,,,,282.5,B,1,Yes,Multi-ply
Jordan Dunn,M,1991-05-05,16,M_TEM_2_AAPF,73.7,75,,,,,,185,-192.5,-200,,185,,,,,,185,B,1,Yes,Multi-ply
Anthony McCloskey,M,1991-02-04,17,M_TEM_2_AAPF,98.3,100,,,,,,-210,210,220,227.5,220,,,,,,220,B,1,Yes,Multi-ply
Alec Forezzi,M,1995-06-02,12,M_YEM_AAPF,51.1,52,80,90,95,,95,50,55,-62.5,,55,82.5,97.5,105,,105,255,SBD,2,Yes,Multi-ply
Wayne Flesh III,M,1992-11-05,15,M_TEM_1_AAPF,50.9,52,125,137.5,142.5,147.5,142.5,52.5,60,70,,70,102.5,110,117.5,,117.5,330,SBD,1,Yes,Multi-ply
Joe DiMaggio,M,1992-01-25,16,M_TEM_2_AAPF,78.1,82.5,157.5,-180,-182.5,,157.5,75,-85,-85,,75,157.5,-175,-175,,157.5,390,SBD,1,Yes,Multi-ply
Nathan Bird,M,1991-04-02,17,M_TEM_2_AAPF,89.5,90,192.5,215,-232.5,,215,125,-135,135,,135,215,-225,-225,,215,565,SBD,1,Yes,Multi-ply
Conrad Cable,M,1991-12-03,16,M_TEM_2_AAPF,152.5,140+,187.5,215,240,,240,122.5,-137.5,-137.5,,122.5,180,-205,-205,,180,542.5,SBD,1,Yes,Multi-ply
Raphael Deschenes,M,1989-01-26,19,M_TEM_3_AAPF,89.2,90,-272.5,272.5,-302.5,,272.5,165,-187.5,-187.5,,165,227.5,260,275,-282.5,275,712.5,SBD,1,Yes,Multi-ply
Zach Zenzen,M,1988-07-01,19,M_TEM_3_AAPF,99.5,100,287.5,-317.5,-317.5,,287.5,195,205,217.5,-227.5,217.5,237.5,265,-277.5,,265,770,SBD,1,Yes,Multi-ply
Nate Fonck,M,1989-09-30,18,M_TEM_3_AAPF,134.1,140,282.5,332.5,-340,,332.5,160,-227.5,227.5,,227.5,227.5,260,-272.5,,260,820,SBD,1,Yes,Multi-ply
Cheryl McKenzie,F,1961-01-25,47,F_MEM_2_AAPF,71.6,75,175,-190,-195,,175,90,102.5,105,,105,145,162.5,-177.5,,162.5,442.5,SBD,1,Yes,Multi-ply
Mary Rubcic-Tawzer,F,1956-05-09,51,F_MEM_3_AAPF,103,90+,52.5,65,82.5,,82.5,50,55,-60,,55,102.5,125,137.5,,137.5,275,SBD,1,Yes,Multi-ply
Susan McCallion,F,1948-09-29,59,F_MEM_4_AAPF,53,56,95,102.5,110,112.5,110,40,45,50,,50,95,105,-112.5,,105,265,SBD,1,Yes,Multi-ply
Jane Stabile,F,1952-12-08,55,F_OEM_AAPF,67.5,67.5,-155,-155,155,,155,70,-82.5,-82.5,,70,157.5,172.5,-182.5,,172.5,397.5,SBD,1,Yes,Multi-ply
Shannon Detman,F,1981-11-10,26,F_OEM_AAPF,82,82.5,190,215,-227.5,,215,-82.5,82.5,95,,95,165,182.5,-195,,182.5,492.5,SBD,2,Yes,Multi-ply
Shawna Mendelson,F,1972-10-23,35,F_OEM_AAPF,81.5,82.5,220,-230,-230,,220,-125,125,-137.5,,125,160,170,-175,,170,515,SBD,1,Yes,Multi-ply
Rachael Mayer,F,1989-11-06,18,F_TEM_3_AAPF,66.9,67.5,140,155,167.5,-172.5,167.5,82.5,92.5,97.5,-100,97.5,125,137.5,145,-150,145,410,SBD,1,Yes,Multi-ply
