Name,Division,Sex,Tested,Event,Equipment,WeightClassKg,BodyweightKg,Age,Squat1Kg,Squat2Kg,Squat3Kg,Best3SquatKg,Bench1Kg,Bench2Kg,Bench3Kg,Best3BenchKg,Deadlift1Kg,Deadlift2Kg,Deadlift3Kg,Best3DeadliftKg,TotalKg,Place
Jeff Haiduke,M_JEM_AAPF,M,Yes,B,Multi-ply,75,71.7,23,,,,,177.5,-195,200,200,,,,,200,1
Matt Mulhearn,M_JEM_AAPF,M,Yes,B,Multi-ply,90,86.5,22,,,,,182.5,195,-200,195,,,,,195,1
Sam Borrego,M_JEM_AAPF,M,Yes,B,Multi-ply,90,83.6,22,,,,,147.5,-160,-160,147.5,,,,,147.5,2
Charles Morse,M_MEM_1_AAPF,M,Yes,B,Multi-ply,67.5,65.9,40,,,,,-125,125,-145,125,,,,,125,1
Thomas Stein Sr,M_MEM_2_AAPF,M,Yes,B,Multi-ply,100,98.9,49,,,,,182.5,205,-210,205,,,,,205,1
Mark Fadke,M_MEM_3_AAPF,M,Yes,B,Multi-ply,90,87,50,,,,,125,130,145,145,,,,,145,1
Dave Murphy,M_MEM_3_AAPF,M,Yes,B,Multi-ply,110,107.8,52,,,,,212.5,227.5,235,235,,,,,235,1
Keith Earley,M_MEM_3_AAPF,M,Yes,B,Multi-ply,140,133,51,,,,,175,182.5,-187.5,182.5,,,,,182.5,1
Clay Barnett,M_MEM_4_AAPF,M,Yes,B,Multi-ply,125,117.5,57,,,,,165,-170,175,175,,,,,175,1
Jim Hussey,M_MEM_5_AAPF,M,Yes,B,Multi-ply,90,88.8,63,,,,,167.5,-172.5,172.5,172.5,,,,,172.5,1
Ron Cuny,M_MEM_5_AAPF,M,Yes,B,Multi-ply,90,87.2,60,,,,,122.5,-127.5,-127.5,122.5,,,,,122.5,2
Iosef Plagov,M_MEM_7_AAPF,M,Yes,B,Multi-ply,67.5,66.2,72,,,,,70,,,70,,,,,70,1
Brian Mulhearn,M_OEM_AAPF,M,Yes,B,Multi-ply,82.5,82,22,,,,,-177.5,177.5,182.5,182.5,,,,,182.5,1
Igor Kalyta,M_OEM_AAPF,M,Yes,B,Multi-ply,82.5,82,24,,,,,150,-160,160,160,,,,,160,2
Max Rooney,M_TEM_3_AAPF,M,Yes,B,Multi-ply,125,124.5,18,,,,,157.5,-162.5,-165,157.5,,,,,157.5,1
Sidney Thoms,F_MEM_3_AAPF,F,Yes,B,Multi-ply,90+,112.7,53,,,,,140,-152.5,157.5,157.5,,,,,157.5,1
Dawn Ambrosini,F_OEM_AAPF,F,Yes,B,Multi-ply,90,89.6,35,,,,,62.5,-70,-70,62.5,,,,,62.5,1
Patti Toth,F_SEM_AAPF,F,Yes,B,Multi-ply,67.5,63,36,,,,,47.5,-57.5,62.5,62.5,,,,,62.5,1
Wade Phillips,M_MEM_1_AAPF,M,Yes,B,Multi-ply,75,74.6,41,,,,,-185,185,-190,185,,,,,185,1
Walter Anczerewicz,M_MEM_6_AAPF,M,Yes,B,Multi-ply,100,92,65,,,,,115,130,137.5,137.5,,,,,137.5,1
Wade Phillips,M_MEM_1_APF,M,No,B,Multi-ply,75,74.6,41,,,,,185,,,185,,,,,185,1
Mark Chellino,M_MEM_2_APF,M,No,B,Multi-ply,110,109.7,45,,,,,247.5,260,272.5,272.5,,,,,272.5,1
Dave Murphy,M_MEM_3_APF,M,No,B,Multi-ply,110,107.8,52,,,,,212.5,227.5,235,235,,,,,235,1
Walter Anczerewicz,M_MEM_6_APF,M,No,B,Multi-ply,100,92,65,,,,,115,130,137.5,137.5,,,,,137.5,1
Iosef Plagov,M_MEM_7_APF,M,No,B,Multi-ply,67.5,66.2,72,,,,,70,75,-80,75,,,,,75,1
Wade Phillips,M_OEM_APF,M,No,B,Multi-ply,75,74.6,41,,,,,-185,185,-190,185,,,,,185,1
Jeff Render,M_SEM_APF,M,No,B,Multi-ply,90,88.5,36,,,,,-180,185,190,190,,,,,190,1
Tyler Hudetz,M_TEM_2_AAPF,M,Yes,B,Multi-ply,90,,,,,,,,,,,,,,,,NS
Stephen Webb,M_OEM_APF,M,No,B,Multi-ply,90,,,,,,,,,,,,,,,,NS
Carol Krochmal,F_MEM_2_AAPF,F,Yes,B,Multi-ply,48,,,,,,,,,,,,,,,,NS
Charles Smith,M_MEM_3_APF,M,No,B,Multi-ply,90,,,,,,,,,,,,,,,,NS
Ed Clark,M_SEM_APF,M,No,B,Multi-ply,110,,,,,,,,,,,,,,,,NS
Nick Goett,M_TEM_2_AAPF,M,Yes,B,Multi-ply,82.5,80.9,17,,,,,-165,-177.5,-177.5,,,,,,,DQ
Erik Swastek,M_JEM_AAPF,M,Yes,SBD,Multi-ply,82.5,76.5,22,-237.5,-237.5,237.5,237.5,150,-162.5,-162.5,150,185,192.5,205,205,592.5,1
Von Stein,M_JEM_AAPF,M,Yes,SBD,Multi-ply,90,88.5,22,227.5,245,255,255,132.5,182.5,-190,182.5,185,210,-227.5,210,647.5,1
Jon Jursich,M_JEM_AAPF,M,Yes,SBD,Multi-ply,110,109.5,20,257.5,275,292.5,292.5,167.5,-185,-187.5,167.5,202.5,210,-220,210,670,1
Thomas Stein Jr,M_TEM_1_AAPF,M,Yes,SBD,Multi-ply,52,51,15,120,132.5,142.5,142.5,52.5,62.5,-70,62.5,85,102.5,112.5,112.5,317.5,1
Caleb Smith,M_TEM_1_AAPF,M,Yes,SBD,Multi-ply,125,116.5,15,160,192.5,230,230,80,95,-102.5,95,160,-192.5,192.5,192.5,517.5,1
Joe Kripp,M_TEM_1_AAPF,M,Yes,SBD,Multi-ply,140,131.8,15,-237.5,-237.5,237.5,237.5,-132.5,132.5,-175,132.5,227.5,245,250,250,620,1
Anthony Steil,M_TEM_2_AAPF,M,Yes,SBD,Multi-ply,75,74,17,-192.5,192.5,210,210,-127.5,132.5,-137.5,132.5,192.5,215,-222.5,215,557.5,1
Eric Lilliebridge,M_TCR_2_AAPF,M,Yes,SBD,Wraps,90,90,17,275,292.5,305,305,142.5,147.5,-155,147.5,250,277.5,-282.5,277.5,730,1
Salvador Baltazar,M_TEM_2_AAPF,M,Yes,SBD,Multi-ply,90,89.4,17,227.5,250,260,260,125,-140,-140,125,240,255,-272.5,255,640,2
Alex Foreman,M_TEM_2_AAPF,M,Yes,SBD,Multi-ply,100,99.7,16,240,260,-272.5,260,-150,150,-170,150,227.5,-245,245,245,655,1
Nick Madsen,M_TEM_2_AAPF,M,Yes,SBD,Multi-ply,100,90.5,17,227.5,242.5,250,250,-137.5,-137.5,137.5,137.5,220,227.5,240,240,627.5,2
Connor Krisch,M_TEM_2_AAPF,M,Yes,SBD,Multi-ply,100,95.5,16,205,227.5,245,245,115,-157.5,157.5,157.5,195,217.5,-227.5,217.5,620,3
Ryan Stockman,M_TEM_2_AAPF,M,Yes,SBD,Multi-ply,110,100.7,17,227.5,250,-260,250,142.5,-155,-155,142.5,182.5,,,182.5,575,1
Lord Sarpong,M_TEM_2_AAPF,M,Yes,SBD,Multi-ply,125,115.5,17,250,272.5,-305,272.5,137.5,142.5,-147.5,142.5,250,-272.5,-272.5,250,665,1
Brandon Lee,M_TEM_2_AAPF,M,Yes,SBD,Multi-ply,125,119.3,16,227.5,245,272.5,272.5,125,137.5,-147.5,137.5,205,227.5,-232.5,227.5,637.5,2
Nate Fonck,M_TEM_2_AAPF,M,Yes,SBD,Multi-ply,140,127.5,17,292.5,-330,330,330,167.5,182.5,192.5,192.5,227.5,-245,245,245,767.5,1
Ernie Lilliebridge Jr,M_TCR_3_AAPF,M,Yes,SBD,Wraps,90,88.7,19,-257.5,-257.5,267.5,267.5,125,137.5,-142.5,137.5,235,257.5,-262.5,257.5,662.5,1
Anthony Luna,M_TEM_3_AAPF,M,Yes,SBD,Multi-ply,90,87.3,18,245,265,275,275,132.5,145,-155,145,202.5,-217.5,217.5,217.5,637.5,2
Zach Zenzen,M_TEM_3_AAPF,M,Yes,SBD,Multi-ply,100,98.2,18,295,320,325,325,-160,170,185,185,235,260,-267.5,260,770,1
Joe Minor,M_TEM_3_AAPF,M,Yes,SBD,Multi-ply,110,102.5,18,-240,240,260,260,-142.5,142.5,182.5,182.5,220,227.5,-232.5,227.5,670,1
Jacqueline Stone,F_OEM_AAPF,F,Yes,SBD,Multi-ply,90+,92,27,145,-160,-160,145,90,100,107.5,107.5,122.5,140,152.5,152.5,405,1
Chris Yuhas,M_JEM_APF,M,No,SBD,Multi-ply,75,72.3,21,-200,200,212.5,212.5,102.5,120,-130,120,205,-210,210,210,542.5,1
Shawn Flanagan,M_JEM_APF,M,No,SBD,Multi-ply,110,103.1,21,282.5,315,-342.5,315,227.5,-240,-240,227.5,272.5,290,-300,290,832.5,1
Jon Jursich,M_JEM_APF,M,No,SBD,Multi-ply,110,109.5,20,257.5,275,292.5,292.5,167.5,-185,187.5,187.5,210,-220,-227.5,210,690,2
Ashley Bryant,F_JEM_APF,F,No,SBD,Multi-ply,67.5,63,21,-115,115,125,125,70,-75,-75,70,115,125,-140,125,320,1
Kelly Martin,F_OEM_APF,F,No,SBD,Multi-ply,67.5,65.7,36,200,222.5,-235,222.5,112.5,-122.5,122.5,122.5,172.5,187.5,200,200,545,1
Lizeth Yama,F_TEM_1_AAPF,F,Yes,SBD,Multi-ply,67.5,66.7,14,75,82.5,95,95,-35,-35,-35,,,,,,,DQ
Mike Robinson,M_MEM_2_AAPF,M,Yes,SBD,Multi-ply,67.5,66.6,45,192.5,210,-215,210,130,135,-137.5,135,207.5,220,-227.5,220,565,1
Jordan Evans,M_MEM_2_AAPF,M,Yes,SBD,Multi-ply,90,89.7,48,197.5,217.5,-230,217.5,100,110,120,120,205,227.5,240,240,577.5,1
Bruce McCord,M_MEM_2_AAPF,M,Yes,SBD,Multi-ply,100,98.8,45,245,-272.5,-272.5,245,167.5,-175,-175,167.5,225,-242.5,-242.5,225,637.5,1
Larry Readman,M_MEM_4_AAPF,M,Yes,SBD,Multi-ply,100,96.4,56,142.5,-160,,142.5,92.5,100,-107.5,100,192.5,215,,215,457.5,1
Alan Busch,M_MEM_5_AAPF,M,Yes,SBD,Multi-ply,82.5,80.8,60,197.5,210,220,220,135,-145,145,145,-190,190,205,205,570,1
Kirby Anderson,M_MEM_7_AAPF,M,Yes,SBD,Multi-ply,67.5,65.6,70,140,150,-157.5,150,92.5,-100,-100,92.5,110,117.5,122.5,122.5,365,1
Mark Hibbing,M_SEM_AAPF,M,Yes,SBD,Multi-ply,82.5,82.2,37,-240,247.5,-265,247.5,120,-130,135,135,-190,190,215,215,597.5,1
Joe Sitzer,M_SEM_AAPF,M,Yes,SBD,Multi-ply,90,88.45,33,187.5,225,-252.5,225,135,145,-165,145,187.5,225,255,255,625,1
Steve Wielgos,M_MEM_1_APF,M,No,SBD,Multi-ply,82.5,81.6,42,265,282.5,-290,282.5,165,175,182.5,182.5,220,237.5,245,245,710,1
Martin Caliendo,M_MEM_3_APF,M,No,SBD,Multi-ply,82.5,76.2,54,202.5,227.5,232.5,232.5,145,147.5,155,155,182.5,197.5,215,215,602.5,1
Ed Clark,M_SEM_APF,M,No,SBD,Multi-ply,110,109.8,39,330,-350,-350,330,260,275,-287.5,275,237.5,250,257.5,257.5,862.5,1
Tom Carnaghi,M_MEM_1_AAPF,M,Yes,SBD,Multi-ply,100,97.9,44,322.5,345,-365,345,152.5,160,170,170,247.5,265,277.5,277.5,792.5,1
Scott Edmiston,M_MEM_1_AAPF,M,Yes,SBD,Multi-ply,140,139.4,44,312.5,-332.5,332.5,332.5,212.5,-217.5,-217.5,212.5,272.5,292.5,-300,292.5,837.5,1
Eric Stone,M_OEM_AAPF,M,Yes,SBD,Multi-ply,82.5,80,24,280,307.5,322.5,322.5,160,-182.5,182.5,182.5,205,230,240,240,745,1
Steven Gawlik,M_OEM_AAPF,M,Yes,SBD,Multi-ply,82.5,82,34,262.5,275,280,280,147.5,152.5,-155,152.5,250,-257.5,-257.5,250,682.5,2
Tom Carnaghi,M_OEM_AAPF,M,Yes,SBD,Multi-ply,100,97.9,44,322.5,345,-365,345,152.5,160,170,170,247.5,265,277.5,277.5,792.5,1
Greg Zajac,M_OEM_AAPF,M,Yes,SBD,Multi-ply,100,97.1,31,307.5,-332.5,-332.5,307.5,200,-212.5,,200,240,250,262.5,262.5,770,2
Joe Atef,M_OEM_AAPF,M,Yes,SBD,Multi-ply,110,110,30,355,372.5,-387.5,372.5,237.5,250,262.5,262.5,257.5,275,-285,275,910,1
Jason Visny,M_OEM_AAPF,M,Yes,SBD,Multi-ply,110,109.1,27,277.5,305,-320,305,165,185,195,195,210,232.5,-245,232.5,732.5,2
Jason Glasch,M_OEM_AAPF,M,Yes,SBD,Multi-ply,110,109.9,32,200,220,232.5,232.5,150,-170,-172.5,150,195,215,227.5,227.5,610,3
Michael Davis #11,M_OEM_AAPF,M,Yes,SBD,Multi-ply,125,122,22,160,192.5,222.5,222.5,120,125,137.5,137.5,165,195,-272.5,195,555,1
Todd Moore,M_OEM_AAPF,M,Yes,SBD,Multi-ply,140,127.9,24,220,-250,322.5,322.5,165,192.5,215,215,220,250,322.5,322.5,860,1
Scott Edmiston,M_OEM_AAPF,M,Yes,SBD,Multi-ply,140,139.4,44,312.5,-332.5,332.5,332.5,212.5,-217.5,-217.5,212.5,272.5,292.5,-300,292.5,837.5,2
Steven Gawlik,M_SEM_AAPF,M,Yes,SBD,Multi-ply,82.5,82,34,262.5,275,280,280,147.5,152.5,-155,152.5,250,-257.5,-257.5,250,682.5,1
Jordan Evans,M_MEM_2_APF,M,No,SBD,Multi-ply,90,89.7,48,197.5,217.5,230,230,100,110,120,120,205,227.5,240,240,590,1
Randall LaVeau,M_OEM_APF,M,No,SBD,Multi-ply,90,89.9,24,207.5,230,242.5,242.5,160,182.5,-190,182.5,207.5,227.5,-237.5,227.5,652.5,1
Corey Akers,M_OEM_APF,M,No,SBD,Multi-ply,100,99.2,32,-420,420,-455,420,275,282.5,-290,282.5,250,272.5,-305,272.5,975,1
Luke Edwards,M_OEM_APF,M,No,SBD,Multi-ply,110,107.7,25,365,395,417.5,417.5,235,262.5,-272.5,262.5,315,330,-340,330,1010,1
Pete Arroyo,M_OEM_APF,M,No,SBD,Multi-ply,125,118.8,27,332.5,350,365,365,232.5,-242.5,242.5,242.5,250,272.5,-280,272.5,880,1
Tim Blanchard,M_OEM_APF,M,No,SBD,Multi-ply,140+,141.4,29,185,225,255,255,160,220,-227.5,220,185,230,272.5,272.5,747.5,1
Ernie Lilliebridge Sr,M_SCR_AAPF,M,Yes,SBD,Wraps,140,131.1,35,330,-350,350,350,210,215,-220,215,-320,-320,,,,DQ
Ernie Lilliebridge Sr,M_OCR_AAPF,M,Yes,SBD,Wraps,140,131.5,35,330,-350,350,350,210,215,-220,215,-320,-320,,,,DQ
Marty Dullum,M_SEM_APF,M,No,SBD,Multi-ply,110,108.8,38,,,,,,,,,,,,,,NS
Patrick Shine,M_MEM_2_APF,M,No,SBD,Multi-ply,90,,,,,,,,,,,,,,,,NS
